HW/RTL/06PCM-AUDIO-MICROFONO/Version_01/02 verilog/div_freq/simulation/div_freq_TB.vcd
$date
	Tue Sep 12 23:43:05 2017
$end
$version
	Icarus Verilog
$end
$timescale
	1s
$end
$scope module div_freq_TB $end
$scope module uut $end
$var wire 1 ! clk $end
$var wire 1 " reset $end
$var reg 1 # clkout $end
$var reg 16 $ count [15:0] $end
$upscope $end
$upscope $end
$enddefinitions $end
#0
$dumpvars
bx $
x#
1"
0!
$end
#1
0#
b101 $
1!
#2
0!
#3
1!
#4
0!
#5
1!
#6
0!
#7
1!
#8
0!
#9
1!
#10
0!
0"
#11
b100 $
1!
#12
0!
#13
b11 $
1!
#14
0!
#15
b10 $
1!
#16
0!
#17
b1 $
1!
#18
0!
#19
b0 $
1!
#20
0!
#21
1#
b101 $
1!
#22
0!
#23
b100 $
1!
#24
0!
#25
b11 $
1!
#26
0!
#27
b10 $
1!
#28
0!
#29
b1 $
1!
#30
0!
#31
b0 $
1!
#32
0!
#33
0#
b101 $
1!
#34
0!
#35
b100 $
1!
#36
0!
#37
b11 $
1!
#38
0!
#39
b10 $
1!
#40
0!
#41
b1 $
1!
#42
0!
#43
b0 $
1!
#44
0!
#45
1#
b101 $
1!
#46
0!
#47
b100 $
1!
#48
0!
#49
b11 $
1!
#50
0!
#51
b10 $
1!
#52
0!
#53
b1 $
1!
#54
0!
#55
b0 $
1!
#56
0!
#57
0#
b101 $
1!
#58
0!
#59
b100 $
1!
#60
0!
#61
b11 $
1!
#62
0!
#63
b10 $
1!
#64
0!
#65
b1 $
1!
#66
0!
#67
b0 $
1!
#68
0!
#69
1#
b101 $
1!
#70
0!
#71
b100 $
1!
#72
0!
#73
b11 $
1!
#74
0!
#75
b10 $
1!
#76
0!
#77
b1 $
1!
#78
0!
#79
b0 $
1!
#80
0!
#81
0#
b101 $
1!
#82
0!
#83
b100 $
1!
#84
0!
#85
b11 $
1!
#86
0!
#87
b10 $
1!
#88
0!
#89
b1 $
1!
#90
0!
#91
b0 $
1!
#92
0!
#93
1#
b101 $
1!
#94
0!
#95
b100 $
1!
#96
0!
#97
b11 $
1!
#98
0!
#99
b10 $
1!
#100
0!
#101
b1 $
1!
#102
0!
#103
b0 $
1!
#104
0!
#105
0#
b101 $
1!
#106
0!
#107
b100 $
1!
#108
0!
#109
b11 $
1!
#110
0!
#111
b10 $
1!
#112
0!
#113
b1 $
1!
#114
0!
#115
b0 $
1!
#116
0!
#117
1#
b101 $
1!
#118
0!
#119
b100 $
1!
#120
0!
#121
b11 $
1!
#122
0!
#123
b10 $
1!
#124
0!
#125
b1 $
1!
#126
0!
#127
b0 $
1!
#128
0!
#129
0#
b101 $
1!
#130
0!
#131
b100 $
1!
#132
0!
#133
b11 $
1!
#134
0!
#135
b10 $
1!
#136
0!
#137
b1 $
1!
#138
0!
#139
b0 $
1!
#140
0!
#141
1#
b101 $
1!
#142
0!
#143
b100 $
1!
#144
0!
#145
b11 $
1!
#146
0!
#147
b10 $
1!
#148
0!
#149
b1 $
1!
#150
0!
#151
b0 $
1!
#152
0!
#153
0#
b101 $
1!
#154
0!
#155
b100 $
1!
#156
0!
#157
b11 $
1!
#158
0!
#159
b10 $
1!
#160
0!
#161
b1 $
1!
#162
0!
#163
b0 $
1!
#164
0!
#165
1#
b101 $
1!
#166
0!
#167
b100 $
1!
#168
0!
#169
b11 $
1!
#170
0!
#171
b10 $
1!
#172
0!
#173
b1 $
1!
#174
0!
#175
b0 $
1!
#176
0!
#177
0#
b101 $
1!
#178
0!
#179
b100 $
1!
#180
0!
#181
b11 $
1!
#182
0!
#183
b10 $
1!
#184
0!
#185
b1 $
1!
#186
0!
#187
b0 $
1!
#188
0!
#189
1#
b101 $
1!
#190
0!
#191
b100 $
1!
#192
0!
#193
b11 $
1!
#194
0!
#195
b10 $
1!
#196
0!
#197
b1 $
1!
#198
0!
#199
b0 $
1!
