HW/RTL/06PCM-AUDIO-MICROFONO/Version_01/02 verilog/Prueba4/simulation/controlador_TB.vcd
$date
	Tue Nov 14 20:00:27 2017
$end
$version
	Icarus Verilog
$end
$timescale
	1s
$end
$scope module controlador_TB $end
$scope module uttf $end
$var wire 1 ! clock $end
$var wire 1 " db_rd $end
$var wire 1 # db_wr $end
$var wire 16 $ din [15:0] $end
$var wire 16 % dout [15:0] $end
$var wire 1 & empty $end
$var wire 1 ' rd $end
$var wire 1 ( reset $end
$var wire 1 ) wr $end
$var wire 1 * wr_en $end
$var wire 1 + full $end
$var reg 1 , dffr1 $end
$var reg 1 - dffr2 $end
$var reg 1 . dffw1 $end
$var reg 1 / dffw2 $end
$var reg 1 0 empty_next $end
$var reg 1 1 empty_reg $end
$var reg 1 2 full_next $end
$var reg 1 + full_reg $end
$var reg 16 3 out [15:0] $end
$var reg 10 4 rd_next [9:0] $end
$var reg 10 5 rd_reg [9:0] $end
$var reg 10 6 rd_succ [9:0] $end
$var reg 10 7 wr_next [9:0] $end
$var reg 10 8 wr_reg [9:0] $end
$var reg 10 9 wr_succ [9:0] $end
$upscope $end
$upscope $end
$enddefinitions $end
#0
$dumpvars
b1 9
b0 8
b0 7
b1 6
b0 5
b0 4
bx 3
02
11
10
x/
x.
x-
x,
0+
x*
x)
1(
x'
1&
bx %
bx $
x#
x"
1!
$end
#4
b1010 $
0)
0'
0(
#8
b1100 $
1)
#10
0!
#12
b1 $
#16
b0 $
#20
0*
0#
0,
1.
b10001 $
1!
#24
b11110 $
#28
b10001 $
#30
0!
#32
b11100 $
#36
b1100 $
#40
1*
00
b1 7
1#
0"
0.
1/
0-
b11110 $
1!
0)
#44
b10001 $
1'
#48
b1010 $
0'
#50
0!
#52
b1100 $
1'
#56
b1 $
0'
#60
0*
b10 9
0#
0&
01
b1 8
1,
0/
b0 $
1'
1!
#64
b10001 $
0'
#68
b11110 $
1'
#70
0!
#72
b10001 $
0'
#76
b0 $
1'
#80
10
b1 4
1"
0,
1-
b10001 $
0'
1!
#84
b11110 $
1'
#90
0!
#100
b10 6
0"
1&
11
b1 5
b0 %
b0 3
0-
1,
1!
#110
0!
#120
1-
1!
