HW/RTL/07TOUCH/Version_02/02 verilog/ModulosBasicos/ps2/simulation/ps2_TB.vcd
$date
	Sun Oct 22 22:16:57 2017
$end
$version
	Icarus Verilog
$end
$timescale
	1ps
$end
$scope module ps2_TB $end
$scope module uut $end
$var wire 1 ! CLKOUT $end
$var wire 8 " DATA [7:0] $end
$var wire 1 # Rx $end
$var reg 1 $ DONE $end
$var reg 1 % Rx_error $end
$var reg 4 & i [3:0] $end
$var reg 1 ' init $end
$var reg 4 ( j [3:0] $end
$var reg 9 ) regis [8:0] $end
$var reg 8 * regis0 [7:0] $end
$upscope $end
$upscope $end
$enddefinitions $end
#0
$dumpvars
b0 *
b0 )
b0 (
0'
b0 &
0%
0$
1#
b0 "
1!
$end
#1000
0!
#2000
1!
#3000
0!
#4000
1!
#5000
0!
#6000
1!
#7000
0!
#8000
1!
#9000
0!
#10000
1'
1!
0#
#11000
0!
#12000
b1 &
b0 )
1!
#13000
0!
#14000
b10 &
b0 )
1!
#15000
0!
#16000
b11 &
b0 )
1!
#17000
0!
#18000
b100 &
b1 (
b1000 )
1!
1#
#19000
0!
#20000
b101 &
b10 (
b11000 )
1!
#21000
0!
#22000
b110 &
b11 (
b111000 )
1!
#23000
0!
#24000
b111 &
b111000 )
1!
0#
#25000
0!
#26000
b1000 &
b111000 )
1!
#27000
0!
#28000
b1001 &
b100 (
b100111000 )
1!
1#
#29000
0!
#30000
b0 &
1$
b111000 *
b111000 "
0'
1!
#31000
0!
#32000
1!
#33000
0!
#34000
1!
#35000
0!
#36000
1!
#37000
0!
#38000
1!
#39000
0!
#40000
1!
#41000
0!
#42000
1'
1!
0#
#43000
0!
#44000
b1 &
b100111000 )
1!
#45000
0!
#46000
b10 &
b100111000 )
1!
#47000
0!
#48000
b11 &
b101 (
b100111100 )
1!
1#
#49000
0!
#50000
b100 &
b110 (
b100111100 )
1!
#51000
0!
#52000
b101 &
b100101100 )
1!
0#
#53000
0!
#54000
b110 &
b100001100 )
1!
#55000
0!
#56000
b111 &
b111 (
b101001100 )
1!
1#
#57000
0!
#58000
b1000 &
b101001100 )
1!
0#
#59000
0!
#60000
b1001 &
b1000 (
b101001100 )
1!
1#
#61000
0!
#62000
b0 &
b1001100 *
b1001100 "
0'
1!
