HW/RTL/01BLUETOOTH/Version_02/02 verilog/TX/simulation/transmision_TB.vcd
$date
	Sat Nov 11 18:53:26 2017
$end
$version
	Icarus Verilog
$end
$timescale
	1s
$end
$scope module transmision_TB $end
$var wire 1 ! busy $end
$var wire 1 " done $end
$var wire 1 # tx $end
$var reg 1 $ clk_in $end
$var reg 8 % din [7:0] $end
$var reg 1 & reset $end
$var reg 1 ' rw $end
$scope module dut $end
$var wire 1 ! busy $end
$var wire 1 ( clk_div $end
$var wire 1 ) clk_in $end
$var wire 1 * clk_uart $end
$var wire 8 + din [7:0] $end
$var wire 1 , reset $end
$var wire 1 - rw $end
$var reg 3 . bitpos [2:0] $end
$var reg 8 / data [7:0] $end
$var reg 1 0 done $end
$var reg 2 1 state [1:0] $end
$var reg 1 2 tx $end
$scope module div $end
$var wire 1 ) clk_in $end
$var wire 1 , reset $end
$var reg 1 3 clk_div $end
$var reg 32 4 count [31:0] $end
$upscope $end
$upscope $end
$upscope $end
$enddefinitions $end
#0
$dumpvars
bx 4
03
12
b0 1
00
b11111111 /
b0 .
0-
1,
b0 +
0*
0)
0(
0'
1&
b0 %
0$
1#
0"
0!
$end
#1
b0 4
1$
1)
#2
0$
0)
#3
1$
1)
#4
0$
0)
#5
1$
1)
#6
0$
0)
#7
1$
1)
#8
0$
0)
#9
1$
1)
#10
0$
0)
#11
1$
1)
#12
0$
0)
#13
1$
1)
#14
0$
0)
#15
1$
1)
#16
0$
0)
#17
1$
1)
#18
0$
0)
#19
1$
1)
#20
0$
0)
b110011 %
b110011 +
1'
1-
#21
1$
1)
#22
0$
0)
#23
1$
1)
#24
0$
0)
#25
1$
1)
#26
0$
0)
#27
1$
1)
#28
0$
0)
#29
1$
1)
#30
0$
0)
#31
1$
1)
#32
0$
0)
#33
1$
1)
#34
0$
0)
#35
1$
1)
#36
0$
0)
#37
1$
1)
#38
0$
0)
#39
1$
1)
#40
0$
0)
#41
1$
1)
#42
0$
0)
#43
1$
1)
#44
0$
0)
#45
1$
1)
#46
0$
0)
#47
1$
1)
#48
0$
0)
#49
1$
1)
#50
0$
0)
#51
1$
1)
#52
0$
0)
#53
1$
1)
#54
0$
0)
#55
1$
1)
#56
0$
0)
#57
1$
1)
#58
0$
0)
#59
1$
1)
#60
0$
0)
#61
1$
1)
#62
0$
0)
#63
1$
1)
#64
0$
0)
#65
1$
1)
#66
0$
0)
#67
1$
1)
#68
0$
0)
#69
1$
1)
#70
0$
0)
#71
1$
1)
#72
0$
0)
#73
1$
1)
#74
0$
0)
#75
1$
1)
#76
0$
0)
#77
1$
1)
#78
0$
0)
#79
1$
1)
#80
0$
0)
#81
1$
1)
#82
0$
0)
#83
1$
1)
#84
0$
0)
#85
1$
1)
#86
0$
0)
#87
1$
1)
#88
0$
0)
#89
1$
1)
#90
0$
0)
#91
1$
1)
#92
0$
0)
#93
1$
1)
#94
0$
0)
#95
1$
1)
#96
0$
0)
#97
1$
1)
#98
0$
0)
#99
1$
1)
#100
0$
0)
0&
0,
#101
b1 4
1$
1)
#102
0$
0)
#103
b10 4
1$
1)
#104
0$
0)
#105
b11 4
1$
1)
#106
0$
0)
#107
b100 4
1$
1)
#108
0$
0)
#109
b101 4
1$
1)
#110
0$
0)
#111
b110 4
1$
1)
#112
0$
0)
#113
b111 4
1$
1)
#114
0$
0)
#115
b1000 4
1$
1)
#116
0$
0)
#117
b1001 4
1$
1)
#118
0$
0)
#119
b1010 4
1$
1)
#120
0$
0)
#121
b1011 4
1$
1)
#122
0$
0)
#123
b1100 4
1$
1)
#124
0$
0)
#125
b1101 4
1$
1)
#126
0$
0)
#127
b1110 4
1$
1)
#128
0$
0)
#129
b1111 4
1$
1)
#130
0$
0)
#131
b10000 4
1$
1)
#132
0$
0)
#133
b10001 4
1$
1)
#134
0$
0)
#135
b10010 4
1$
1)
#136
0$
0)
#137
b10011 4
1$
1)
#138
0$
0)
#139
b10100 4
1$
1)
#140
0$
0)
#141
b10101 4
1$
1)
#142
0$
0)
#143
b10110 4
1$
1)
#144
0$
0)
#145
b10111 4
1$
1)
#146
0$
0)
#147
b11000 4
1$
1)
#148
0$
0)
#149
b11001 4
1$
1)
#150
0$
0)
#151
b11010 4
1$
1)
#152
0$
0)
#153
b11011 4
1$
1)
#154
0$
0)
#155
b11100 4
1$
1)
#156
0$
0)
#157
b11101 4
1$
1)
#158
0$
0)
#159
b11110 4
1$
1)
#160
0$
0)
#161
b11111 4
1$
1)
#162
0$
0)
#163
b100000 4
1$
1)
#164
0$
0)
#165
b100001 4
1$
1)
#166
0$
0)
#167
b100010 4
1$
1)
#168
0$
0)
#169
b100011 4
1$
1)
#170
0$
0)
#171
b100100 4
1$
1)
#172
0$
0)
#173
b100101 4
1$
1)
#174
0$
0)
#175
b100110 4
1$
1)
#176
0$
0)
#177
b100111 4
1$
1)
#178
0$
0)
#179
b101000 4
1$
1)
#180
0$
0)
#181
b101001 4
1$
1)
#182
0$
0)
#183
b101010 4
1$
1)
#184
0$
0)
#185
b101011 4
1$
1)
#186
0$
0)
#187
b101100 4
1$
1)
#188
0$
0)
#189
b101101 4
1$
1)
#190
0$
0)
#191
b101110 4
1$
1)
#192
0$
0)
#193
b101111 4
1$
1)
#194
0$
0)
#195
b110000 4
1$
1)
#196
0$
0)
#197
b110001 4
1$
1)
#198
0$
0)
#199
b110010 4
1$
1)
#200
0$
0)
#201
b110011 4
1$
1)
#202
0$
0)
#203
b110100 4
1$
1)
#204
0$
0)
#205
b110101 4
1$
1)
#206
0$
0)
#207
b110110 4
1$
1)
#208
0$
0)
#209
b110111 4
1$
1)
#210
0$
0)
#211
b111000 4
1$
1)
#212
0$
0)
#213
b111001 4
1$
1)
#214
0$
0)
#215
b111010 4
1$
1)
#216
0$
0)
#217
b111011 4
1$
1)
#218
0$
0)
#219
b111100 4
1$
1)
#220
0$
0)
#221
b111101 4
1$
1)
#222
0$
0)
#223
b111110 4
1$
1)
#224
0$
0)
#225
b111111 4
1$
1)
#226
0$
0)
#227
b1000000 4
1$
1)
#228
0$
0)
#229
b1000001 4
1$
1)
#230
0$
0)
#231
b1000010 4
1$
1)
#232
0$
0)
#233
b1000011 4
1$
1)
#234
0$
0)
#235
b1000100 4
1$
1)
#236
0$
0)
#237
b1000101 4
1$
1)
#238
0$
0)
#239
b1000110 4
1$
1)
#240
0$
0)
#241
b1000111 4
1$
1)
#242
0$
0)
#243
b1001000 4
1$
1)
#244
0$
0)
#245
b1001001 4
1$
1)
#246
0$
0)
#247
b1001010 4
1$
1)
#248
0$
0)
#249
b1001011 4
1$
1)
#250
0$
0)
#251
b1001100 4
1$
1)
#252
0$
0)
#253
b1001101 4
1$
1)
#254
0$
0)
#255
b1001110 4
1$
1)
#256
0$
0)
#257
b1001111 4
1$
1)
#258
0$
0)
#259
b1010000 4
1$
1)
#260
0$
0)
#261
b1010001 4
1$
1)
#262
0$
0)
#263
b1010010 4
1$
1)
#264
0$
0)
#265
b1010011 4
1$
1)
#266
0$
0)
#267
b1010100 4
1$
1)
#268
0$
0)
#269
b1010101 4
1$
1)
#270
0$
0)
#271
b1010110 4
1$
1)
#272
0$
0)
#273
b1010111 4
1$
1)
#274
0$
0)
#275
b1011000 4
1$
1)
#276
0$
0)
#277
b1011001 4
1$
1)
#278
0$
0)
#279
b1011010 4
1$
1)
#280
0$
0)
#281
b1011011 4
1$
1)
#282
0$
0)
#283
b1011100 4
1$
1)
#284
0$
0)
#285
b1011101 4
1$
1)
#286
0$
0)
#287
b1011110 4
1$
1)
#288
0$
0)
#289
b1011111 4
1$
1)
#290
0$
0)
#291
b1100000 4
1$
1)
#292
0$
0)
#293
b1100001 4
1$
1)
#294
0$
0)
#295
b1100010 4
1$
1)
#296
0$
0)
#297
b1100011 4
1$
1)
#298
0$
0)
#299
b1100100 4
1$
1)
#300
0$
0)
#301
b1100101 4
1$
1)
#302
0$
0)
#303
b1100110 4
1$
1)
#304
0$
0)
#305
b1100111 4
1$
1)
#306
0$
0)
#307
b1101000 4
1$
1)
#308
0$
0)
#309
b1101001 4
1$
1)
#310
0$
0)
#311
b1101010 4
1$
1)
#312
0$
0)
#313
b1101011 4
1$
1)
#314
0$
0)
#315
b1101100 4
1$
1)
#316
0$
0)
#317
b1101101 4
1$
1)
#318
0$
0)
#319
b1101110 4
1$
1)
#320
0$
0)
#321
b1101111 4
1$
1)
#322
0$
0)
#323
b1110000 4
1$
1)
#324
0$
0)
#325
b1110001 4
1$
1)
#326
0$
0)
#327
b1110010 4
1$
1)
#328
0$
0)
#329
b1110011 4
1$
1)
#330
0$
0)
#331
b1110100 4
1$
1)
#332
0$
0)
#333
b1110101 4
1$
1)
#334
0$
0)
#335
b1110110 4
1$
1)
#336
0$
0)
#337
b1110111 4
1$
1)
#338
0$
0)
#339
b1111000 4
1$
1)
#340
0$
0)
#341
b1111001 4
1$
1)
#342
0$
0)
#343
b1111010 4
1$
1)
#344
0$
0)
#345
b1111011 4
1$
1)
#346
0$
0)
#347
b1111100 4
1$
1)
#348
0$
0)
#349
b1111101 4
1$
1)
#350
0$
0)
#351
b1111110 4
1$
1)
#352
0$
0)
#353
b1111111 4
1$
1)
#354
0$
0)
#355
b10000000 4
1$
1)
#356
0$
0)
#357
b10000001 4
1$
1)
#358
0$
0)
#359
b10000010 4
1$
1)
#360
0$
0)
#361
b10000011 4
1$
1)
#362
0$
0)
#363
b10000100 4
1$
1)
#364
0$
0)
#365
b10000101 4
1$
1)
#366
0$
0)
#367
b10000110 4
1$
1)
#368
0$
0)
#369
b10000111 4
1$
1)
#370
0$
0)
#371
b10001000 4
1$
1)
#372
0$
0)
#373
b10001001 4
1$
1)
#374
0$
0)
#375
b10001010 4
1$
1)
#376
0$
0)
#377
b10001011 4
1$
1)
#378
0$
0)
#379
b10001100 4
1$
1)
#380
0$
0)
#381
b10001101 4
1$
1)
#382
0$
0)
#383
b10001110 4
1$
1)
#384
0$
0)
#385
b10001111 4
1$
1)
#386
0$
0)
#387
b10010000 4
1$
1)
#388
0$
0)
#389
b10010001 4
1$
1)
#390
0$
0)
#391
b10010010 4
1$
1)
#392
0$
0)
#393
b10010011 4
1$
1)
#394
0$
0)
#395
b10010100 4
1$
1)
#396
0$
0)
#397
b10010101 4
1$
1)
#398
0$
0)
#399
b10010110 4
1$
1)
#400
0$
0)
#401
b10010111 4
1$
1)
#402
0$
0)
#403
b10011000 4
1$
1)
#404
0$
0)
#405
b10011001 4
1$
1)
#406
0$
0)
#407
b10011010 4
1$
1)
#408
0$
0)
#409
b10011011 4
1$
1)
#410
0$
0)
#411
b10011100 4
1$
1)
#412
0$
0)
#413
b10011101 4
1$
1)
#414
0$
0)
#415
b10011110 4
1$
1)
#416
0$
0)
#417
b10011111 4
1$
1)
#418
0$
0)
#419
b10100000 4
1$
1)
#420
0$
0)
#421
b10100001 4
1$
1)
#422
0$
0)
#423
b10100010 4
1$
1)
#424
0$
0)
#425
b10100011 4
1$
1)
#426
0$
0)
#427
b10100100 4
1$
1)
#428
0$
0)
#429
b10100101 4
1$
1)
#430
0$
0)
#431
b10100110 4
1$
1)
#432
0$
0)
#433
b10100111 4
1$
1)
#434
0$
0)
#435
b10101000 4
1$
1)
#436
0$
0)
#437
b10101001 4
1$
1)
#438
0$
0)
#439
b10101010 4
1$
1)
#440
0$
0)
#441
b10101011 4
1$
1)
#442
0$
0)
#443
b10101100 4
1$
1)
#444
0$
0)
#445
b10101101 4
1$
1)
#446
0$
0)
#447
b10101110 4
1$
1)
#448
0$
0)
#449
b10101111 4
1$
1)
#450
0$
0)
#451
b10110000 4
1$
1)
#452
0$
0)
#453
b10110001 4
1$
1)
#454
0$
0)
#455
b10110010 4
1$
1)
#456
0$
0)
#457
b10110011 4
1$
1)
#458
0$
0)
#459
b10110100 4
1$
1)
#460
0$
0)
#461
b10110101 4
1$
1)
#462
0$
0)
#463
b10110110 4
1$
1)
#464
0$
0)
#465
b10110111 4
1$
1)
#466
0$
0)
#467
b10111000 4
1$
1)
#468
0$
0)
#469
b10111001 4
1$
1)
#470
0$
0)
#471
b10111010 4
1$
1)
#472
0$
0)
#473
b10111011 4
1$
1)
#474
0$
0)
#475
b10111100 4
1$
1)
#476
0$
0)
#477
b10111101 4
1$
1)
#478
0$
0)
#479
b10111110 4
1$
1)
#480
0$
0)
#481
b10111111 4
1$
1)
#482
0$
0)
#483
b11000000 4
1$
1)
#484
0$
0)
#485
b11000001 4
1$
1)
#486
0$
0)
#487
b11000010 4
1$
1)
#488
0$
0)
#489
b11000011 4
1$
1)
#490
0$
0)
#491
b11000100 4
1$
1)
#492
0$
0)
#493
b11000101 4
1$
1)
#494
0$
0)
#495
b11000110 4
1$
1)
#496
0$
0)
#497
b11000111 4
1$
1)
#498
0$
0)
#499
b11001000 4
1$
1)
#500
0$
0)
#501
b11001001 4
1$
1)
#502
0$
0)
#503
b11001010 4
1$
1)
#504
0$
0)
#505
b11001011 4
1$
1)
#506
0$
0)
#507
b11001100 4
1$
1)
#508
0$
0)
#509
b11001101 4
1$
1)
#510
0$
0)
#511
b11001110 4
1$
1)
#512
0$
0)
#513
b11001111 4
1$
1)
#514
0$
0)
#515
b11010000 4
1$
1)
#516
0$
0)
#517
b11010001 4
1$
1)
#518
0$
0)
#519
b11010010 4
1$
1)
#520
0$
0)
#521
b11010011 4
1$
1)
#522
0$
0)
#523
b11010100 4
1$
1)
#524
0$
0)
#525
b11010101 4
1$
1)
#526
0$
0)
#527
b11010110 4
1$
1)
#528
0$
0)
#529
b11010111 4
1$
1)
#530
0$
0)
#531
b11011000 4
1$
1)
#532
0$
0)
#533
b11011001 4
1$
1)
#534
0$
0)
#535
b11011010 4
1$
1)
#536
0$
0)
#537
b11011011 4
1$
1)
#538
0$
0)
#539
b11011100 4
1$
1)
#540
0$
0)
#541
b11011101 4
1$
1)
#542
0$
0)
#543
b11011110 4
1$
1)
#544
0$
0)
#545
b11011111 4
1$
1)
#546
0$
0)
#547
b11100000 4
1$
1)
#548
0$
0)
#549
b11100001 4
1$
1)
#550
0$
0)
#551
b11100010 4
1$
1)
#552
0$
0)
#553
b11100011 4
1$
1)
#554
0$
0)
#555
b11100100 4
1$
1)
#556
0$
0)
#557
b11100101 4
1$
1)
#558
0$
0)
#559
b11100110 4
1$
1)
#560
0$
0)
#561
b11100111 4
1$
1)
#562
0$
0)
#563
b11101000 4
1$
1)
#564
0$
0)
#565
b11101001 4
1$
1)
#566
0$
0)
#567
b11101010 4
1$
1)
#568
0$
0)
#569
b11101011 4
1$
1)
#570
0$
0)
#571
b11101100 4
1$
1)
#572
0$
0)
#573
b11101101 4
1$
1)
#574
0$
0)
#575
b11101110 4
1$
1)
#576
0$
0)
#577
b11101111 4
1$
1)
#578
0$
0)
#579
b11110000 4
1$
1)
#580
0$
0)
#581
b11110001 4
1$
1)
#582
0$
0)
#583
b11110010 4
1$
1)
#584
0$
0)
#585
b11110011 4
1$
1)
#586
0$
0)
#587
b11110100 4
1$
1)
#588
0$
0)
#589
b11110101 4
1$
1)
#590
0$
0)
#591
b11110110 4
1$
1)
#592
0$
0)
#593
b11110111 4
1$
1)
#594
0$
0)
#595
b11111000 4
1$
1)
#596
0$
0)
#597
b11111001 4
1$
1)
#598
0$
0)
#599
b11111010 4
1$
1)
#600
0$
0)
#601
b11111011 4
1$
1)
#602
0$
0)
#603
b11111100 4
1$
1)
#604
0$
0)
#605
b11111101 4
1$
1)
#606
0$
0)
#607
b11111110 4
1$
1)
#608
0$
0)
#609
b11111111 4
1$
1)
#610
0$
0)
#611
b100000000 4
1$
1)
#612
0$
0)
#613
b100000001 4
1$
1)
#614
0$
0)
#615
b100000010 4
1$
1)
#616
0$
0)
#617
b100000011 4
1$
1)
#618
0$
0)
#619
b100000100 4
1$
1)
#620
0$
0)
#621
b100000101 4
1$
1)
#622
0$
0)
#623
b100000110 4
1$
1)
#624
0$
0)
#625
b100000111 4
1$
1)
#626
0$
0)
#627
b100001000 4
1$
1)
#628
0$
0)
#629
b100001001 4
1$
1)
#630
0$
0)
#631
b100001010 4
1$
1)
#632
0$
0)
#633
b100001011 4
1$
1)
#634
0$
0)
#635
b100001100 4
1$
1)
#636
0$
0)
#637
b100001101 4
1$
1)
#638
0$
0)
#639
b100001110 4
1$
1)
#640
0$
0)
#641
b100001111 4
1$
1)
#642
0$
0)
#643
b100010000 4
1$
1)
#644
0$
0)
#645
b100010001 4
1$
1)
#646
0$
0)
#647
b100010010 4
1$
1)
#648
0$
0)
#649
b100010011 4
1$
1)
#650
0$
0)
#651
b100010100 4
1$
1)
#652
0$
0)
#653
b100010101 4
1$
1)
#654
0$
0)
#655
b100010110 4
1$
1)
#656
0$
0)
#657
b100010111 4
1$
1)
#658
0$
0)
#659
b100011000 4
1$
1)
#660
0$
0)
#661
b100011001 4
1$
1)
#662
0$
0)
#663
b100011010 4
1$
1)
#664
0$
0)
#665
b100011011 4
1$
1)
#666
0$
0)
#667
b100011100 4
1$
1)
#668
0$
0)
#669
b100011101 4
1$
1)
#670
0$
0)
#671
b100011110 4
1$
1)
#672
0$
0)
#673
b100011111 4
1$
1)
#674
0$
0)
#675
b100100000 4
1$
1)
#676
0$
0)
#677
b100100001 4
1$
1)
#678
0$
0)
#679
b100100010 4
1$
1)
#680
0$
0)
#681
b100100011 4
1$
1)
#682
0$
0)
#683
b100100100 4
1$
1)
#684
0$
0)
#685
b100100101 4
1$
1)
#686
0$
0)
#687
b100100110 4
1$
1)
#688
0$
0)
#689
b100100111 4
1$
1)
#690
0$
0)
#691
b100101000 4
1$
1)
#692
0$
0)
#693
b100101001 4
1$
1)
#694
0$
0)
#695
b100101010 4
1$
1)
#696
0$
0)
#697
b100101011 4
1$
1)
#698
0$
0)
#699
b100101100 4
1$
1)
#700
0$
0)
#701
b100101101 4
1$
1)
#702
0$
0)
#703
b100101110 4
1$
1)
#704
0$
0)
#705
b100101111 4
1$
1)
#706
0$
0)
#707
b100110000 4
1$
1)
#708
0$
0)
#709
b100110001 4
1$
1)
#710
0$
0)
#711
b100110010 4
1$
1)
#712
0$
0)
#713
b100110011 4
1$
1)
#714
0$
0)
#715
b100110100 4
1$
1)
#716
0$
0)
#717
b100110101 4
1$
1)
#718
0$
0)
#719
b100110110 4
1$
1)
#720
0$
0)
#721
b100110111 4
1$
1)
#722
0$
0)
#723
b100111000 4
1$
1)
#724
0$
0)
#725
b100111001 4
1$
1)
#726
0$
0)
#727
b100111010 4
1$
1)
#728
0$
0)
#729
b100111011 4
1$
1)
#730
0$
0)
#731
b100111100 4
1$
1)
#732
0$
0)
#733
b100111101 4
1$
1)
#734
0$
0)
#735
b100111110 4
1$
1)
#736
0$
0)
#737
b100111111 4
1$
1)
#738
0$
0)
#739
b101000000 4
1$
1)
#740
0$
0)
#741
b101000001 4
1$
1)
#742
0$
0)
#743
b101000010 4
1$
1)
#744
0$
0)
#745
b101000011 4
1$
1)
#746
0$
0)
#747
b101000100 4
1$
1)
#748
0$
0)
#749
b101000101 4
1$
1)
#750
0$
0)
#751
b101000110 4
1$
1)
#752
0$
0)
#753
b101000111 4
1$
1)
#754
0$
0)
#755
b101001000 4
1$
1)
#756
0$
0)
#757
b101001001 4
1$
1)
#758
0$
0)
#759
b101001010 4
1$
1)
#760
0$
0)
#761
b101001011 4
1$
1)
#762
0$
0)
#763
b101001100 4
1$
1)
#764
0$
0)
#765
b101001101 4
1$
1)
#766
0$
0)
#767
b101001110 4
1$
1)
#768
0$
0)
#769
b101001111 4
1$
1)
#770
0$
0)
#771
b101010000 4
1$
1)
#772
0$
0)
#773
b101010001 4
1$
1)
#774
0$
0)
#775
b101010010 4
1$
1)
#776
0$
0)
#777
b101010011 4
1$
1)
#778
0$
0)
#779
b101010100 4
1$
1)
#780
0$
0)
#781
b101010101 4
1$
1)
#782
0$
0)
#783
b101010110 4
1$
1)
#784
0$
0)
#785
b101010111 4
1$
1)
#786
0$
0)
#787
b101011000 4
1$
1)
#788
0$
0)
#789
b101011001 4
1$
1)
#790
0$
0)
#791
b101011010 4
1$
1)
#792
0$
0)
#793
b101011011 4
1$
1)
#794
0$
0)
#795
b101011100 4
1$
1)
#796
0$
0)
#797
b101011101 4
1$
1)
#798
0$
0)
#799
b101011110 4
1$
1)
#800
0$
0)
#801
b101011111 4
1$
1)
#802
0$
0)
#803
b101100000 4
1$
1)
#804
0$
0)
#805
b101100001 4
1$
1)
#806
0$
0)
#807
b101100010 4
1$
1)
#808
0$
0)
#809
b101100011 4
1$
1)
#810
0$
0)
#811
b101100100 4
1$
1)
#812
0$
0)
#813
b101100101 4
1$
1)
#814
0$
0)
#815
b101100110 4
1$
1)
#816
0$
0)
#817
b101100111 4
1$
1)
#818
0$
0)
#819
b101101000 4
1$
1)
#820
0$
0)
#821
b101101001 4
1$
1)
#822
0$
0)
#823
b101101010 4
1$
1)
#824
0$
0)
#825
b101101011 4
1$
1)
#826
0$
0)
#827
b101101100 4
1$
1)
#828
0$
0)
#829
b101101101 4
1$
1)
#830
0$
0)
#831
b101101110 4
1$
1)
#832
0$
0)
#833
b101101111 4
1$
1)
#834
0$
0)
#835
b101110000 4
1$
1)
#836
0$
0)
#837
b101110001 4
1$
1)
#838
0$
0)
#839
b101110010 4
1$
1)
#840
0$
0)
#841
b101110011 4
1$
1)
#842
0$
0)
#843
b101110100 4
1$
1)
#844
0$
0)
#845
b101110101 4
1$
1)
#846
0$
0)
#847
b101110110 4
1$
1)
#848
0$
0)
#849
b101110111 4
1$
1)
#850
0$
0)
#851
b101111000 4
1$
1)
#852
0$
0)
#853
b101111001 4
1$
1)
#854
0$
0)
#855
b101111010 4
1$
1)
#856
0$
0)
#857
b101111011 4
1$
1)
#858
0$
0)
#859
b101111100 4
1$
1)
#860
0$
0)
#861
b101111101 4
1$
1)
#862
0$
0)
#863
b101111110 4
1$
1)
#864
0$
0)
#865
b101111111 4
1$
1)
#866
0$
0)
#867
b110000000 4
1$
1)
#868
0$
0)
#869
b110000001 4
1$
1)
#870
0$
0)
#871
b110000010 4
1$
1)
#872
0$
0)
#873
b110000011 4
1$
1)
#874
0$
0)
#875
b110000100 4
1$
1)
#876
0$
0)
#877
b110000101 4
1$
1)
#878
0$
0)
#879
b110000110 4
1$
1)
#880
0$
0)
#881
b110000111 4
1$
1)
#882
0$
0)
#883
b110001000 4
1$
1)
#884
0$
0)
#885
b110001001 4
1$
1)
#886
0$
0)
#887
b110001010 4
1$
1)
#888
0$
0)
#889
b110001011 4
1$
1)
#890
0$
0)
#891
b110001100 4
1$
1)
#892
0$
0)
#893
b110001101 4
1$
1)
#894
0$
0)
#895
b110001110 4
1$
1)
#896
0$
0)
#897
b110001111 4
1$
1)
#898
0$
0)
#899
b110010000 4
1$
1)
#900
0$
0)
#901
b110010001 4
1$
1)
#902
0$
0)
#903
b110010010 4
1$
1)
#904
0$
0)
#905
b110010011 4
1$
1)
#906
0$
0)
#907
b110010100 4
1$
1)
#908
0$
0)
#909
b110010101 4
1$
1)
#910
0$
0)
#911
b110010110 4
1$
1)
#912
0$
0)
#913
b110010111 4
1$
1)
#914
0$
0)
#915
b110011000 4
1$
1)
#916
0$
0)
#917
b110011001 4
1$
1)
#918
0$
0)
#919
b110011010 4
1$
1)
#920
0$
0)
#921
b110011011 4
1$
1)
#922
0$
0)
#923
b110011100 4
1$
1)
#924
0$
0)
#925
b110011101 4
1$
1)
#926
0$
0)
#927
b110011110 4
1$
1)
#928
0$
0)
#929
b110011111 4
1$
1)
#930
0$
0)
#931
b110100000 4
1$
1)
#932
0$
0)
#933
b110100001 4
1$
1)
#934
0$
0)
#935
b110100010 4
1$
1)
#936
0$
0)
#937
b110100011 4
1$
1)
#938
0$
0)
#939
b110100100 4
1$
1)
#940
0$
0)
#941
b110100101 4
1$
1)
#942
0$
0)
#943
b110100110 4
1$
1)
#944
0$
0)
#945
b110100111 4
1$
1)
#946
0$
0)
#947
b110101000 4
1$
1)
#948
0$
0)
#949
b110101001 4
1$
1)
#950
0$
0)
#951
b110101010 4
1$
1)
#952
0$
0)
#953
b110101011 4
1$
1)
#954
0$
0)
#955
b110101100 4
1$
1)
#956
0$
0)
#957
b110101101 4
1$
1)
#958
0$
0)
#959
b110101110 4
1$
1)
#960
0$
0)
#961
b110101111 4
1$
1)
#962
0$
0)
#963
b110110000 4
1$
1)
#964
0$
0)
#965
b110110001 4
1$
1)
#966
0$
0)
#967
b110110010 4
1$
1)
#968
0$
0)
#969
b110110011 4
1$
1)
#970
0$
0)
#971
b110110100 4
1$
1)
#972
0$
0)
#973
b110110101 4
1$
1)
#974
0$
0)
#975
b110110110 4
1$
1)
#976
0$
0)
#977
b110110111 4
1$
1)
#978
0$
0)
#979
b110111000 4
1$
1)
#980
0$
0)
#981
b110111001 4
1$
1)
#982
0$
0)
#983
b110111010 4
1$
1)
#984
0$
0)
#985
b110111011 4
1$
1)
#986
0$
0)
#987
b110111100 4
1$
1)
#988
0$
0)
#989
b110111101 4
1$
1)
#990
0$
0)
#991
b110111110 4
1$
1)
#992
0$
0)
#993
b110111111 4
1$
1)
#994
0$
0)
#995
b111000000 4
1$
1)
#996
0$
0)
#997
b111000001 4
1$
1)
#998
0$
0)
#999
b111000010 4
1$
1)
#1000
0$
0)
#1001
b111000011 4
1$
1)
#1002
0$
0)
#1003
b111000100 4
1$
1)
#1004
0$
0)
#1005
b111000101 4
1$
1)
#1006
0$
0)
#1007
b111000110 4
1$
1)
#1008
0$
0)
#1009
b111000111 4
1$
1)
#1010
0$
0)
#1011
b111001000 4
1$
1)
#1012
0$
0)
#1013
b111001001 4
1$
1)
#1014
0$
0)
#1015
b111001010 4
1$
1)
#1016
0$
0)
#1017
b111001011 4
1$
1)
#1018
0$
0)
#1019
b111001100 4
1$
1)
#1020
0$
0)
#1021
b111001101 4
1$
1)
#1022
0$
0)
#1023
b111001110 4
1$
1)
#1024
0$
0)
#1025
b111001111 4
1$
1)
#1026
0$
0)
#1027
b111010000 4
1$
1)
#1028
0$
0)
#1029
b111010001 4
1$
1)
#1030
0$
0)
#1031
b111010010 4
1$
1)
#1032
0$
0)
#1033
b111010011 4
1$
1)
#1034
0$
0)
#1035
b111010100 4
1$
1)
#1036
0$
0)
#1037
b111010101 4
1$
1)
#1038
0$
0)
#1039
b111010110 4
1$
1)
#1040
0$
0)
#1041
b111010111 4
1$
1)
#1042
0$
0)
#1043
b111011000 4
1$
1)
#1044
0$
0)
#1045
b111011001 4
1$
1)
#1046
0$
0)
#1047
b111011010 4
1$
1)
#1048
0$
0)
#1049
b111011011 4
1$
1)
#1050
0$
0)
#1051
b111011100 4
1$
1)
#1052
0$
0)
#1053
b111011101 4
1$
1)
#1054
0$
0)
#1055
b111011110 4
1$
1)
#1056
0$
0)
#1057
b111011111 4
1$
1)
#1058
0$
0)
#1059
b111100000 4
1$
1)
#1060
0$
0)
#1061
b111100001 4
1$
1)
#1062
0$
0)
#1063
b111100010 4
1$
1)
#1064
0$
0)
#1065
b111100011 4
1$
1)
#1066
0$
0)
#1067
b111100100 4
1$
1)
#1068
0$
0)
#1069
b111100101 4
1$
1)
#1070
0$
0)
#1071
b111100110 4
1$
1)
#1072
0$
0)
#1073
b111100111 4
1$
1)
#1074
0$
0)
#1075
b111101000 4
1$
1)
#1076
0$
0)
#1077
b111101001 4
1$
1)
#1078
0$
0)
#1079
b111101010 4
1$
1)
#1080
0$
0)
#1081
b111101011 4
1$
1)
#1082
0$
0)
#1083
b111101100 4
1$
1)
#1084
0$
0)
#1085
b111101101 4
1$
1)
#1086
0$
0)
#1087
b111101110 4
1$
1)
#1088
0$
0)
#1089
b111101111 4
1$
1)
#1090
0$
0)
#1091
b111110000 4
1$
1)
#1092
0$
0)
#1093
b111110001 4
1$
1)
#1094
0$
0)
#1095
b111110010 4
1$
1)
#1096
0$
0)
#1097
b111110011 4
1$
1)
#1098
0$
0)
#1099
b111110100 4
1$
1)
#1100
0$
0)
#1101
b111110101 4
1$
1)
#1102
0$
0)
#1103
b111110110 4
1$
1)
#1104
0$
0)
#1105
b111110111 4
1$
1)
#1106
0$
0)
#1107
b111111000 4
1$
1)
#1108
0$
0)
#1109
b111111001 4
1$
1)
#1110
0$
0)
#1111
b111111010 4
1$
1)
#1112
0$
0)
#1113
b111111011 4
1$
1)
#1114
0$
0)
#1115
b111111100 4
1$
1)
#1116
0$
0)
#1117
b111111101 4
1$
1)
#1118
0$
0)
#1119
b111111110 4
1$
1)
#1120
0$
0)
#1121
b111111111 4
1$
1)
#1122
0$
0)
#1123
b1000000000 4
1$
1)
#1124
0$
0)
#1125
b1000000001 4
1$
1)
#1126
0$
0)
#1127
b1000000010 4
1$
1)
#1128
0$
0)
#1129
b1000000011 4
1$
1)
#1130
0$
0)
#1131
b1000000100 4
1$
1)
#1132
0$
0)
#1133
b1000000101 4
1$
1)
#1134
0$
0)
#1135
b1000000110 4
1$
1)
#1136
0$
0)
#1137
b1000000111 4
1$
1)
#1138
0$
0)
#1139
b1000001000 4
1$
1)
#1140
0$
0)
#1141
b1000001001 4
1$
1)
#1142
0$
0)
#1143
b1000001010 4
1$
1)
#1144
0$
0)
#1145
b1000001011 4
1$
1)
#1146
0$
0)
#1147
b1000001100 4
1$
1)
#1148
0$
0)
#1149
b1000001101 4
1$
1)
#1150
0$
0)
#1151
b1000001110 4
1$
1)
#1152
0$
0)
#1153
b1000001111 4
1$
1)
#1154
0$
0)
#1155
b1000010000 4
1$
1)
#1156
0$
0)
#1157
b1000010001 4
1$
1)
#1158
0$
0)
#1159
b1000010010 4
1$
1)
#1160
0$
0)
#1161
b1000010011 4
1$
1)
#1162
0$
0)
#1163
b1000010100 4
1$
1)
#1164
0$
0)
#1165
b1000010101 4
1$
1)
#1166
0$
0)
#1167
b1000010110 4
1$
1)
#1168
0$
0)
